04_student - A Tidybiology website
…
Take a look at the variables in each dataset

gene_name in proteins and symbol in mitocarta contain the gene IDs for each gene. They can therefore serve as a common variable

Let’s join on this

left_join example

left_join proteins with mitocarta and assign the output to a new object called pm_left

pm_left <- left_join(proteins, mitocarta, by = c("gene_name" = "symbol"))
pm_left 

## # A tibble: 20,432 x 50
##    uniprot_id gene_name gene_name_alt protein_name protein_name_alt sequence
##    <chr>      <chr>     <chr>         <chr>        <chr>            <chr>   
##  1 P04217     A1BG      <NA>          "Alpha-1B-g… Alpha-1-B glyco… MSMLVVF…
##  2 Q9NQ94     A1CF      ACF ASP       "APOBEC1 co… APOBEC1-stimula… MESNHKS…
##  3 P01023     A2M       CPAMD5 FWP007 "Alpha-2-ma… Alpha-2-M) (C3 … MGKNKLL…
##  4 A8K2U0     A2ML1     CPAMD9        "Alpha-2-ma… C3 and PZP-like… MWAQLLL…
##  5 U3KPV4     A3GALT2   A3GALT2P IGB… "Alpha-1,3-… EC 2.4.1.87) (I… MALKEGL…
##  6 Q9NPC4     A4GALT    A14GALT A4GA… "Lactosylce… EC 2.4.1.228) (… MSKPPDL…
##  7 Q9UNA3     A4GNT     <NA>          "Alpha-1,4-… Alpha4GnT) (EC … MRKELQL…
##  8 Q9NRG9     AAAS      ADRACALA GL0… "Aladin "    Adracalin)       MCSLGLF…
##  9 Q86V21     AACS      ACSF1         "Acetoacety… EC 6.2.1.16) (A… MSKEERP…
## 10 P22760     AADAC     DAC           "Arylacetam… EC 3.1.1.3)      MGRKSLY…
## # … with 20,422 more rows, and 44 more variables: length <dbl>, mass <dbl>,
## #   training_dataset <chr>, human_gene_id <dbl>, mouse_ortholog_gene_id <dbl>,
## #   synonyms <chr>, description <chr>, ensembl_gene_id <chr>,
## #   protein_length <dbl>, target_p_score <dbl>, mito_domain_score <chr>,
## #   coexpression_gnf_n50_score <dbl>, pgc_induction_score <dbl>,
## #   yeast_mito_homolog_score <chr>, rickettsia_homolog_score <chr>,
## #   msms_score <chr>, mcarta2_score <dbl>, mcarta2_fdr <dbl>,
## #   mcarta2_list <dbl>, mcarta2_evidence <chr>, hg19_chromosome <fct>,
## #   hg19_start <dbl>, hg19_stop <dbl>, msms_num_tissues <dbl>,
…
Returns all rows from b, and all columns from a and b

Rows in b with no match in a will have NA values in the new columns

If there are multiple matches between a and b, all combinations of the matches are returned

right_join example

right_join proteins with mitocarta and assign the output to a new object called pm_right

pm_right <- right_join(proteins, mitocarta, by = c("gene_name" = "symbol"))
pm_right 

## # A tibble: 19,356 x 50
##    uniprot_id gene_name gene_name_alt protein_name protein_name_alt sequence
##    <chr>      <chr>     <chr>         <chr>        <chr>            <chr>   
##  1 P04217     A1BG      <NA>          "Alpha-1B-g… Alpha-1-B glyco… MSMLVVF…
##  2 P01023     A2M       CPAMD5 FWP007 "Alpha-2-ma… Alpha-2-M) (C3 … MGKNKLL…
##  3 P18440     NAT1      AAC1          "Arylamine … EC 2.3.1.5) (Ar… MDIEAYL…
##  4 P11245     NAT2      AAC2          "Arylamine … EC 2.3.1.5) (Ar… MDIEAYF…
##  5 P01011     SERPINA3  AACT GIG24 G… "Alpha-1-an… ACT) (Cell grow… MERMLPL…
##  6 P22760     AADAC     DAC           "Arylacetam… EC 3.1.1.3)      MGRKSLY…
##  7 Q13685     AAMP      <NA>          Angio-assoc… <NA>             MESESES…
##  8 Q16613     AANAT     SNAT          "Serotonin … Serotonin acety… MSTQSTH…
##  9 P49588     AARS      <NA>          "Alanine--t… EC 6.1.1.7) (Al… MDSTLTA…
## 10 P80404     ABAT      GABAT         "4-aminobut… EC 2.6.1.19) ((… MASMLLA…
## # … with 19,346 more rows, and 44 more variables: length <dbl>, mass <dbl>,
## #   training_dataset <chr>, human_gene_id <dbl>, mouse_ortholog_gene_id <dbl>,
## #   synonyms <chr>, description <chr>, ensembl_gene_id <chr>,
## #   protein_length <dbl>, target_p_score <dbl>, mito_domain_score <chr>,
## #   coexpression_gnf_n50_score <dbl>, pgc_induction_score <dbl>,
## #   yeast_mito_homolog_score <chr>, rickettsia_homolog_score <chr>,
## #   msms_score <chr>, mcarta2_score <dbl>, mcarta2_fdr <dbl>,
## #   mcarta2_list <dbl>, mcarta2_evidence <chr>, hg19_chromosome <fct>,
## #   hg19_start <dbl>, hg19_stop <dbl>, msms_num_tissues <dbl>,
…
inner_join

Returns all rows from a where there are matching values in b, and all columns from a and b

If there are multiple matches between a and b, all combination of the matches are returned

inner_join example

inner_join proteins with mitocarta and assign the output to a new object called pm_inner

pm_inner <- inner_join(proteins, mitocarta, by = c("gene_name" = "symbol"))
pm_inner 

## # A tibble: 18,161 x 50
##    uniprot_id gene_name gene_name_alt protein_name protein_name_alt sequence
##    <chr>      <chr>     <chr>         <chr>        <chr>            <chr>   
##  1 P04217     A1BG      <NA>          "Alpha-1B-g… Alpha-1-B glyco… MSMLVVF…
##  2 Q9NQ94     A1CF      ACF ASP       "APOBEC1 co… APOBEC1-stimula… MESNHKS…
##  3 P01023     A2M       CPAMD5 FWP007 "Alpha-2-ma… Alpha-2-M) (C3 … MGKNKLL…
##  4 A8K2U0     A2ML1     CPAMD9        "Alpha-2-ma… C3 and PZP-like… MWAQLLL…
##  5 U3KPV4     A3GALT2   A3GALT2P IGB… "Alpha-1,3-… EC 2.4.1.87) (I… MALKEGL…
##  6 Q9NPC4     A4GALT    A14GALT A4GA… "Lactosylce… EC 2.4.1.228) (… MSKPPDL…
##  7 Q9UNA3     A4GNT     <NA>          "Alpha-1,4-… Alpha4GnT) (EC … MRKELQL…
##  8 Q9NRG9     AAAS      ADRACALA GL0… "Aladin "    Adracalin)       MCSLGLF…
##  9 Q86V21     AACS      ACSF1         "Acetoacety… EC 6.2.1.16) (A… MSKEERP…
## 10 P22760     AADAC     DAC           "Arylacetam… EC 3.1.1.3)      MGRKSLY…
## # … with 18,151 more rows, and 44 more variables: length <dbl>, mass <dbl>,
## #   training_dataset <chr>, human_gene_id <dbl>, mouse_ortholog_gene_id <dbl>,
## #   synonyms <chr>, description <chr>, ensembl_gene_id <chr>,
## #   protein_length <dbl>, target_p_score <dbl>, mito_domain_score <chr>,
## #   coexpression_gnf_n50_score <dbl>, pgc_induction_score <dbl>,
## #   yeast_mito_homolog_score <chr>, rickettsia_homolog_score <chr>,
## #   msms_score <chr>, mcarta2_score <dbl>, mcarta2_fdr <dbl>,
## #   mcarta2_list <dbl>, mcarta2_evidence <chr>, hg19_chromosome <fct>,
## #   hg19_start <dbl>, hg19_stop <dbl>, msms_num_tissues <dbl>,
…
full_join

Returns all rows and all columns from both a and b

Where there are no matching values, returns NA for the one missing

full_join example

full_join proteins with mitocarta and assign the output to a new object called pm_full

pm_full <- full_join(proteins, mitocarta, by = c("gene_name" = "symbol"))
pm_full 

## # A tibble: 21,627 x 50
##    uniprot_id gene_name gene_name_alt protein_name protein_name_alt sequence
##    <chr>      <chr>     <chr>         <chr>        <chr>            <chr>   
##  1 P04217     A1BG      <NA>          "Alpha-1B-g… Alpha-1-B glyco… MSMLVVF…
##  2 Q9NQ94     A1CF      ACF ASP       "APOBEC1 co… APOBEC1-stimula… MESNHKS…
##  3 P01023     A2M       CPAMD5 FWP007 "Alpha-2-ma… Alpha-2-M) (C3 … MGKNKLL…
##  4 A8K2U0     A2ML1     CPAMD9        "Alpha-2-ma… C3 and PZP-like… MWAQLLL…
##  5 U3KPV4     A3GALT2   A3GALT2P IGB… "Alpha-1,3-… EC 2.4.1.87) (I… MALKEGL…
##  6 Q9NPC4     A4GALT    A14GALT A4GA… "Lactosylce… EC 2.4.1.228) (… MSKPPDL…
##  7 Q9UNA3     A4GNT     <NA>          "Alpha-1,4-… Alpha4GnT) (EC … MRKELQL…
##  8 Q9NRG9     AAAS      ADRACALA GL0… "Aladin "    Adracalin)       MCSLGLF…
##  9 Q86V21     AACS      ACSF1         "Acetoacety… EC 6.2.1.16) (A… MSKEERP…
## 10 P22760     AADAC     DAC           "Arylacetam… EC 3.1.1.3)      MGRKSLY…
## # … with 21,617 more rows, and 44 more variables: length <dbl>, mass <dbl>,
## #   training_dataset <chr>, human_gene_id <dbl>, mouse_ortholog_gene_id <dbl>,
## #   synonyms <chr>, description <chr>, ensembl_gene_id <chr>,
## #   protein_length <dbl>, target_p_score <dbl>, mito_domain_score <chr>,
## #   coexpression_gnf_n50_score <dbl>, pgc_induction_score <dbl>,
## #   yeast_mito_homolog_score <chr>, rickettsia_homolog_score <chr>,
## #   msms_score <chr>, mcarta2_score <dbl>, mcarta2_fdr <dbl>,
## #   mcarta2_list <dbl>, mcarta2_evidence <chr>, hg19_chromosome <fct>,
## #   hg19_start <dbl>, hg19_stop <dbl>, msms_num_tissues <dbl>,
…
