Tidybiology: Class 5 Report Exercise - Favorite Gene - A Tidybiology website
…
    Tidybiology: Class 5 Report Exercise

##### STUDENTS START HERE #####

#Which tissue has the most unique mitochondrial proteins?
mitocarta_class5 %>% 
  group_by(location) %>% 
  count(true_false, sort = TRUE)

## # A tibble: 42 x 3
## # Groups:   location [14]
##    location       true_false     n
##    <chr>          <lgl>      <int>
##  1 placenta       TRUE         866
##  2 adipose        TRUE         857
##  3 testis         TRUE         853
##  4 largeintestine TRUE         841
##  5 spinalcord     TRUE         824
##  6 cerebrum       TRUE         818
##  7 cerebellum     TRUE         809
##  8 brainstem      TRUE         804
##  9 liver          TRUE         794
## 10 stomach        TRUE         794
## # … with 32 more rows
…
