Introduction to dplyr - A Tidybiology website
…
In addition to the glimpse() function, you can use the class() function to determine the data type of a specific column

class(proteins$length)

## [1] "numeric"

(Re)Introducing %>%

The %>% operator is a way of “chaining” together strings of commands that make reading your code easy. The following code chunk illustrates how %>% works

proteins %>% 
  select(uniprot_id, length) %>% 
  filter(length > 500) 

## # A tibble: 8,035 x 2
##    uniprot_id length
##    <chr>       <dbl>
##  1 Q9NQ94        594
##  2 P01023       1474
##  3 A8K2U0       1454
##  4 Q9NRG9        546
##  5 Q86V21        672
##  6 Q2M2I8        961
##  7 P49588        968
##  8 Q5JTZ9        985
##  9 Q4L235       1098
## 10 Q9UDR5        926
## # … with 8,025 more rows
…
The main verbs we will cover are select(), filter(), arrange(), mutate(), and summarise(). These all combine naturally with group_by() which allows you to perform any operation “by group”

select()

The select() verb allows you to extract specific columns from your dataset

The most basic select() is one where you comma separate a list of columns you want included

For example, if you only want to select the uniprot_id and length columns, run the following code chunk

proteins %>% 
  select(uniprot_id, length) 

## # A tibble: 20,430 x 2
##    uniprot_id length
##    <chr>       <dbl>
##  1 P04217        495
##  2 Q9NQ94        594
##  3 P01023       1474
##  4 A8K2U0       1454
##  5 U3KPV4        340
##  6 Q9NPC4        353
##  7 Q9UNA3        340
##  8 Q9NRG9        546
##  9 Q86V21        672
## 10 P22760        399
## # … with 20,420 more rows

select()

If you want to select all columns except uniprot_id, run the following

proteins %>% 
  select(-uniprot_id) 

## # A tibble: 20,430 x 7
##    gene_name gene_name_alt  protein_name protein_name_alt sequence length   mass
##    <chr>     <chr>          <chr>        <chr>            <chr>     <dbl>  <dbl>
##  1 A1BG      <NA>           "Alpha-1B-g… Alpha-1-B glyco… MSMLVVF…    495  54254
##  2 A1CF      ACF ASP        "APOBEC1 co… APOBEC1-stimula… MESNHKS…    594  65202
##  3 A2M       CPAMD5 FWP007  "Alpha-2-ma… Alpha-2-M) (C3 … MGKNKLL…   1474 163291
##  4 A2ML1     CPAMD9         "Alpha-2-ma… C3 and PZP-like… MWAQLLL…   1454 161107
##  5 A3GALT2   A3GALT2P IGBS… "Alpha-1,3-… EC 2.4.1.87) (I… MALKEGL…    340  38754
##  6 A4GALT    A14GALT A4GAL… "Lactosylce… EC 2.4.1.228) (… MSKPPDL…    353  40499
##  7 A4GNT     <NA>           "Alpha-1,4-… Alpha4GnT) (EC … MRKELQL…    340  39497
##  8 AAAS      ADRACALA GL003 "Aladin "    Adracalin)       MCSLGLF…    546  59574
##  9 AACS      ACSF1          "Acetoacety… EC 6.2.1.16) (A… MSKEERP…    672  75144
## 10 AADAC     DAC            "Arylacetam… EC 3.1.1.3)      MGRKSLY…    399  45734
## # … with 20,420 more rows

select()

Finally, you can provide a range of columns to return two columns and everything in between. For example

proteins %>% 
  select(uniprot_id:protein_name) 

## # A tibble: 20,430 x 4
##    uniprot_id gene_name gene_name_alt   protein_name                            
##    <chr>      <chr>     <chr>           <chr>                                   
##  1 P04217     A1BG      <NA>            "Alpha-1B-glycoprotein "                
##  2 Q9NQ94     A1CF      ACF ASP         "APOBEC1 complementation factor "       
##  3 P01023     A2M       CPAMD5 FWP007   "Alpha-2-macroglobulin "                
##  4 A8K2U0     A2ML1     CPAMD9          "Alpha-2-macroglobulin-like protein 1 " 
##  5 U3KPV4     A3GALT2   A3GALT2P IGBS3S "Alpha-1,3-galactosyltransferase 2 "    
##  6 Q9NPC4     A4GALT    A14GALT A4GALT1 "Lactosylceramide 4-alpha-galactosyltra…
##  7 Q9UNA3     A4GNT     <NA>            "Alpha-1,4-N-acetylglucosaminyltransfer…
##  8 Q9NRG9     AAAS      ADRACALA GL003  "Aladin "                               
##  9 Q86V21     AACS      ACSF1           "Acetoacetyl-CoA synthetase "           
## 10 P22760     AADAC     DAC             "Arylacetamide deacetylase "            
## # … with 20,420 more rows
…
The filter() verb allows you to choose rows based on certain condition(s) and discard everything else

All filters are performed on some logical statement

If a row meets the condition of this statement (i.e. is true) then it gets chosen (or “filtered”). All other rows are discarded

filter()

Filtering can be performed on categorical data

mitocarta %>% 
  filter(mito_domain_score == "MitoDomain") 

## # A tibble: 426 x 43
##    training_dataset human_gene_id mouse_ortholog_… symbol synonyms description
##    <chr>                    <dbl>            <dbl> <chr>  <chr>    <chr>      
##  1 Tmito                       33            11363 ACADL  ACAD4|L… acyl-CoA d…
##  2 Tmito                       34            11364 ACADM  ACAD1|M… acyl-CoA d…
##  3 Tmito                       35            11409 ACADS  ACAD3|S… acyl-CoA d…
##  4 Tmito                       36            66885 ACADSB 2-MEBCA… acyl-CoA d…
##  5 Tmito                       37            11370 ACADVL ACAD6|L… acyl-CoA d…
##  6 Tpossible_mito              51            11430 ACOX1  ACOX|PA… acyl-CoA o…
##  7 Tnon_mito                  191           269378 AHCY   SAHH|ad… adenosylho…
##  8 Tmito                      211            11655 ALAS1  ALAS|AL… aminolevul…
##  9 Tmito                      212            11656 ALAS2  ALAS-E|… aminolevul…
## 10 Tmito                      291            11739 SLC25… 1|AAC1|… solute car…
## # … with 416 more rows, and 37 more variables: ensembl_gene_id <chr>,
## #   protein_length <dbl>, target_p_score <dbl>, mito_domain_score <chr>,
## #   coexpression_gnf_n50_score <dbl>, pgc_induction_score <dbl>,
## #   yeast_mito_homolog_score <chr>, rickettsia_homolog_score <chr>,
## #   msms_score <chr>, mcarta2_score <dbl>, mcarta2_fdr <dbl>,
## #   mcarta2_list <dbl>, mcarta2_evidence <chr>, hg19_chromosome <fct>,
## #   hg19_start <dbl>, hg19_stop <dbl>, msms_num_tissues <dbl>,
## #   msms_num_peptides_unique <dbl>, msms_num_spectra <dbl>,
## #   msms_total_intensity <dbl>, msms_percent_coverage <dbl>, tissues <chr>,
…
The code chunk above only shows you proteins with a mito domain score that is equal to MitoDomain

Note that filter() only applies to rows, and has no effect on columns

filter()

Filtering can also be performed on numerical data

For example, to select proteins with a mcarta2_fdr value that is less than 0.05, run the following code

mitocarta %>% 
  filter(mcarta2_fdr < 0.05) 

## # A tibble: 947 x 43
##    training_dataset human_gene_id mouse_ortholog_… symbol synonyms description
##    <chr>                    <dbl>            <dbl> <chr>  <chr>    <chr>      
##  1 Tmito                       18           268860 ABAT   GABA-AT… 4-aminobut…
##  2 Tmito                       22            11306 ABCB7  ABC7|AS… ATP-bindin…
##  3 Tpossible_mito              30           235674 ACAA1  ACAA|PT… acetyl-CoA…
##  4 Tpossible_mito              31           107476 ACACA  ACAC|AC… acetyl-CoA…
##  5 Tpossible_mito              32           100705 ACACB  ACC2|AC… acetyl-CoA…
##  6 Tmito                       33            11363 ACADL  ACAD4|L… acyl-CoA d…
##  7 Tmito                       34            11364 ACADM  ACAD1|M… acyl-CoA d…
##  8 Tmito                       35            11409 ACADS  ACAD3|S… acyl-CoA d…
##  9 Tmito                       36            66885 ACADSB 2-MEBCA… acyl-CoA d…
## 10 Tmito                       37            11370 ACADVL ACAD6|L… acyl-CoA d…
## # … with 937 more rows, and 37 more variables: ensembl_gene_id <chr>,
## #   protein_length <dbl>, target_p_score <dbl>, mito_domain_score <chr>,
## #   coexpression_gnf_n50_score <dbl>, pgc_induction_score <dbl>,
## #   yeast_mito_homolog_score <chr>, rickettsia_homolog_score <chr>,
## #   msms_score <chr>, mcarta2_score <dbl>, mcarta2_fdr <dbl>,
## #   mcarta2_list <dbl>, mcarta2_evidence <chr>, hg19_chromosome <fct>,
## #   hg19_start <dbl>, hg19_stop <dbl>, msms_num_tissues <dbl>,
## #   msms_num_peptides_unique <dbl>, msms_num_spectra <dbl>,
## #   msms_total_intensity <dbl>, msms_percent_coverage <dbl>, tissues <chr>,
…
filter()

To filter on multiple conditions, you can write a sequence of filter() commands

For example, to choose proteins with a mito domain score that is equal to MitoDomain and a mcarta2_fdr value that is less than 0.05

mitocarta %>% 
  filter(mito_domain_score == "MitoDomain") %>% 
  filter(mcarta2_fdr < 0.05) 

## # A tibble: 328 x 43
##    training_dataset human_gene_id mouse_ortholog_… symbol synonyms description
##    <chr>                    <dbl>            <dbl> <chr>  <chr>    <chr>      
##  1 Tmito                       33            11363 ACADL  ACAD4|L… acyl-CoA d…
##  2 Tmito                       34            11364 ACADM  ACAD1|M… acyl-CoA d…
##  3 Tmito                       35            11409 ACADS  ACAD3|S… acyl-CoA d…
##  4 Tmito                       36            66885 ACADSB 2-MEBCA… acyl-CoA d…
##  5 Tmito                       37            11370 ACADVL ACAD6|L… acyl-CoA d…
##  6 Tmito                      211            11655 ALAS1  ALAS|AL… aminolevul…
##  7 Tmito                      212            11656 ALAS2  ALAS-E|… aminolevul…
##  8 Tmito                      291            11739 SLC25… 1|AAC1|… solute car…
##  9 Tmito                      292            11740 SLC25… 2F1|AAC… solute car…
## 10 Tmito                      513            66043 ATP5D  P30049   ATP syntha…
## # … with 318 more rows, and 37 more variables: ensembl_gene_id <chr>,
## #   protein_length <dbl>, target_p_score <dbl>, mito_domain_score <chr>,
## #   coexpression_gnf_n50_score <dbl>, pgc_induction_score <dbl>,
## #   yeast_mito_homolog_score <chr>, rickettsia_homolog_score <chr>,
## #   msms_score <chr>, mcarta2_score <dbl>, mcarta2_fdr <dbl>,
## #   mcarta2_list <dbl>, mcarta2_evidence <chr>, hg19_chromosome <fct>,
## #   hg19_start <dbl>, hg19_stop <dbl>, msms_num_tissues <dbl>,
## #   msms_num_peptides_unique <dbl>, msms_num_spectra <dbl>,
## #   msms_total_intensity <dbl>, msms_percent_coverage <dbl>, tissues <chr>,
…
filter()

To avoid writing multiple filter() commands, multiple logical statements can be put inside a single filter() command, separated by commas

mitocarta %>% 
  filter(mito_domain_score == "MitoDomain",
         mcarta2_fdr < 0.05) 

## # A tibble: 328 x 43
##    training_dataset human_gene_id mouse_ortholog_… symbol synonyms description
##    <chr>                    <dbl>            <dbl> <chr>  <chr>    <chr>      
##  1 Tmito                       33            11363 ACADL  ACAD4|L… acyl-CoA d…
##  2 Tmito                       34            11364 ACADM  ACAD1|M… acyl-CoA d…
##  3 Tmito                       35            11409 ACADS  ACAD3|S… acyl-CoA d…
##  4 Tmito                       36            66885 ACADSB 2-MEBCA… acyl-CoA d…
##  5 Tmito                       37            11370 ACADVL ACAD6|L… acyl-CoA d…
##  6 Tmito                      211            11655 ALAS1  ALAS|AL… aminolevul…
##  7 Tmito                      212            11656 ALAS2  ALAS-E|… aminolevul…
##  8 Tmito                      291            11739 SLC25… 1|AAC1|… solute car…
##  9 Tmito                      292            11740 SLC25… 2F1|AAC… solute car…
## 10 Tmito                      513            66043 ATP5D  P30049   ATP syntha…
## # … with 318 more rows, and 37 more variables: ensembl_gene_id <chr>,
## #   protein_length <dbl>, target_p_score <dbl>, mito_domain_score <chr>,
## #   coexpression_gnf_n50_score <dbl>, pgc_induction_score <dbl>,
## #   yeast_mito_homolog_score <chr>, rickettsia_homolog_score <chr>,
## #   msms_score <chr>, mcarta2_score <dbl>, mcarta2_fdr <dbl>,
## #   mcarta2_list <dbl>, mcarta2_evidence <chr>, hg19_chromosome <fct>,
## #   hg19_start <dbl>, hg19_stop <dbl>, msms_num_tissues <dbl>,
## #   msms_num_peptides_unique <dbl>, msms_num_spectra <dbl>,
## #   msms_total_intensity <dbl>, msms_percent_coverage <dbl>, tissues <chr>,
…
<= = “less than or equal to”

arrange()

You can use the arrange() verb to sort rows

The input for arrange is one or many columns, and arrange() sorts the rows in ascending order i.e. from smallest to largest

For example, to sort rows from smallest to largest protein, run the following

proteins %>% 
  arrange(length) 

## # A tibble: 20,430 x 8
##    uniprot_id gene_name gene_name_alt protein_name protein_name_alt sequence
##    <chr>      <chr>     <chr>         <chr>        <chr>            <chr>   
##  1 P0DPR3     TRDD1     <NA>          T cell rece… <NA>             EI      
##  2 P0DPI4     TRBD1     <NA>          T cell rece… <NA>             GTGG    
##  3 P01858     <NA>      <NA>          "Phagocytos… Tuftsin)         TKPR    
##  4 P0DOY5     IGHD1-1   <NA>          Immunoglobu… <NA>             GTTGT   
##  5 P02729     <NA>      <NA>          Urine glyco… <NA>             CEHSHDGA
##  6 P01358     <NA>      <NA>          Gastric jui… <NA>             LAAGKVE…
##  7 P02728     <NA>      <NA>          Erythrocyte… <NA>             CEGHSHD…
##  8 P22103     <NA>      <NA>          "Pneumadin " PNM)             AGEPKLD…
##  9 P69208     <NA>      <NA>          "Morphogene… Head activator)… QPPGGSK…
## 10 A0A0A0MT89 IGKJ1     <NA>          Immunoglobu… <NA>             WTFGQGT…
## # … with 20,420 more rows, and 2 more variables: length <dbl>, mass <dbl>

arrange()

To reverse this order, use the desc() function within arrange()

proteins %>% 
  arrange(desc(length)) 

## # A tibble: 20,430 x 8
##    uniprot_id gene_name gene_name_alt protein_name protein_name_alt sequence
##    <chr>      <chr>     <chr>         <chr>        <chr>            <chr>   
##  1 Q8WZ42     TTN       <NA>          "Titin "     EC 2.7.11.1) (C… MTTQAPT…
##  2 Q8WXI7     MUC16     CA125         "Mucin-16 "  MUC-16) (Ovaria… MLKPSGL…
##  3 Q8NF91     SYNE1     C6orf98 KIAA… "Nesprin-1 " Enaptin) (KASH … MATSRGA…
##  4 Q7Z5P9     MUC19     <NA>          "Mucin-19 "  MUC-19)          MKLILWY…
##  5 Q5VST9     OBSCN     KIAA1556 KIA… "Obscurin "  EC 2.7.11.1) (O… MDQPQFS…
##  6 Q03001     DST       BP230 BP240 … "Dystonin "  230 kDa bullous… MAGYLSP…
##  7 Q9UPN3     MACF1     ABP620 ACF7 … "Microtubul… 620 kDa actin-b… MSSSDEE…
##  8 Q5CZC0     FSIP2     <NA>          Fibrous she… <NA>             MELYLGA…
##  9 Q8WXH0     SYNE2     KIAA1011 NUA  "Nesprin-2 " KASH domain-con… MASSPEL…
## 10 P20929     NEB       <NA>          Nebulin      <NA>             MADDEDY…
## # … with 20,420 more rows, and 2 more variables: length <dbl>, mass <dbl>

arrange() exercise

What happens when you apply arrange() to a categorical variable?

proteins %>% 
  arrange(gene_name_alt) 

## # A tibble: 20,430 x 8
##    uniprot_id gene_name gene_name_alt protein_name protein_name_alt sequence
##    <chr>      <chr>     <chr>         <chr>        <chr>            <chr>   
##  1 O14569     CYB561D2  101F6 LUCA12… "Cytochrome… EC 7.2.1.3) (Pu… MALSAET…
##  2 P18054     ALOX12    12LO LOG12    "Arachidona… 12S-LOX) (12S-l… MGRYRIR…
##  3 O43715     TRIAP1    15E1.1 HSPC1… "TP53-regul… Protein 15E1.1)… MNSVGEA…
##  4 O43716     GATC      15E1.2        Glutamyl-tR… Gln) amidotrans… MWSRLVW…
##  5 Q14596     NBR1      1A13B KIAA00… "Next to BR… Cell migration-… MEPQVTL…
##  6 O14931     NCR3      1C7 LY117     "Natural cy… Activating natu… MAWMLLL…
##  7 Q08116     RGS1      1R20 BL34 IE… "Regulator … RGS1) (B-cell a… MRAAAIS…
##  8 Q02535     ID3       1R21 BHLHB25… "DNA-bindin… Class B basic h… MKALSPV…
##  9 P98173     FAM3A     2-19 2.19     "Protein FA… Cytokine-like p… MRLAGPL…
## 10 Q9BZW8     CD244     2B4           "Natural ki… NK cell activat… MLGQVVT…
## # … with 20,420 more rows, and 2 more variables: length <dbl>, mass <dbl>

mutate()

The mutate() verb, unlike the ones covered so far, creates new variable(s) i.e. new column(s). For example

proteins %>% 
  mutate(sqrt_length = sqrt(length)) 

## # A tibble: 20,430 x 9
##    uniprot_id gene_name gene_name_alt protein_name protein_name_alt sequence
##    <chr>      <chr>     <chr>         <chr>        <chr>            <chr>   
##  1 P04217     A1BG      <NA>          "Alpha-1B-g… Alpha-1-B glyco… MSMLVVF…
##  2 Q9NQ94     A1CF      ACF ASP       "APOBEC1 co… APOBEC1-stimula… MESNHKS…
##  3 P01023     A2M       CPAMD5 FWP007 "Alpha-2-ma… Alpha-2-M) (C3 … MGKNKLL…
##  4 A8K2U0     A2ML1     CPAMD9        "Alpha-2-ma… C3 and PZP-like… MWAQLLL…
##  5 U3KPV4     A3GALT2   A3GALT2P IGB… "Alpha-1,3-… EC 2.4.1.87) (I… MALKEGL…
##  6 Q9NPC4     A4GALT    A14GALT A4GA… "Lactosylce… EC 2.4.1.228) (… MSKPPDL…
##  7 Q9UNA3     A4GNT     <NA>          "Alpha-1,4-… Alpha4GnT) (EC … MRKELQL…
##  8 Q9NRG9     AAAS      ADRACALA GL0… "Aladin "    Adracalin)       MCSLGLF…
##  9 Q86V21     AACS      ACSF1         "Acetoacety… EC 6.2.1.16) (A… MSKEERP…
## 10 P22760     AADAC     DAC           "Arylacetam… EC 3.1.1.3)      MGRKSLY…
## # … with 20,420 more rows, and 3 more variables: length <dbl>, mass <dbl>,
## #   sqrt_length <dbl>

The code chunk above takes all the elements of the column length, evaluates the square root of each element, and populates a new column called sqrt_length with these results

mutate()

Multiple columns can be used as inputs. For example

proteins %>% 
  mutate(protein_length_mass = length/mass) 

## # A tibble: 20,430 x 9
##    uniprot_id gene_name gene_name_alt protein_name protein_name_alt sequence
##    <chr>      <chr>     <chr>         <chr>        <chr>            <chr>   
##  1 P04217     A1BG      <NA>          "Alpha-1B-g… Alpha-1-B glyco… MSMLVVF…
##  2 Q9NQ94     A1CF      ACF ASP       "APOBEC1 co… APOBEC1-stimula… MESNHKS…
##  3 P01023     A2M       CPAMD5 FWP007 "Alpha-2-ma… Alpha-2-M) (C3 … MGKNKLL…
##  4 A8K2U0     A2ML1     CPAMD9        "Alpha-2-ma… C3 and PZP-like… MWAQLLL…
##  5 U3KPV4     A3GALT2   A3GALT2P IGB… "Alpha-1,3-… EC 2.4.1.87) (I… MALKEGL…
##  6 Q9NPC4     A4GALT    A14GALT A4GA… "Lactosylce… EC 2.4.1.228) (… MSKPPDL…
##  7 Q9UNA3     A4GNT     <NA>          "Alpha-1,4-… Alpha4GnT) (EC … MRKELQL…
##  8 Q9NRG9     AAAS      ADRACALA GL0… "Aladin "    Adracalin)       MCSLGLF…
##  9 Q86V21     AACS      ACSF1         "Acetoacety… EC 6.2.1.16) (A… MSKEERP…
## 10 P22760     AADAC     DAC           "Arylacetam… EC 3.1.1.3)      MGRKSLY…
## # … with 20,420 more rows, and 3 more variables: length <dbl>, mass <dbl>,
## #   protein_length_mass <dbl>
…
